"species","naturalised"
"Mangifera indica",TRUE
"Tamarindus indica",TRUE
"Agave indet",FALSE
"Jacaranda mimosifolia",FALSE
"Cactaceae indet",FALSE
"Delonix regia",FALSE
"Senna spectabilis",FALSE
"Sesbania punicea",FALSE
"Gmelina arborea",FALSE
"Melia azedarach",FALSE
"Toona ciliata",FALSE
"Eucalyptus camaldulensis",FALSE
"Eucalyptus cloeziana",FALSE
"Eucalyptus grandis",FALSE
"Eucalyptus tereticornis",FALSE
"Psidium guajava",FALSE
"Psidium indet",FALSE
"Phyllanthus maderaspatensis",FALSE
"Pinus kesiya",FALSE
"Pinus oocarpa",FALSE
"Lantana camara",FALSE
"Jacaranda indet",FALSE
"Olea europaea",FALSE
